test.vcd
$date
	Wed Nov 27 02:28:08 2019
$end
$version
	Icarus Verilog
$end
$timescale
	1s
$end
$scope module main $end
$var wire 1 ! branchAndZero $end
$var wire 32 " signExtendOut [31:0] $end
$var wire 1 # regWriteEnable $end
$var wire 32 $ regWriteData [31:0] $end
$var wire 5 % regWriteAddress [4:0] $end
$var wire 1 & regDst $end
$var wire 32 ' readData2 [31:0] $end
$var wire 32 ( readData1 [31:0] $end
$var wire 1 ) memToReg $end
$var wire 1 * jumpEnable $end
$var wire 32 + jumpAddress [31:0] $end
$var wire 1 , dataMemWriteEnable $end
$var wire 1 - dataMemReadEnable $end
$var wire 32 . dataMemOut [31:0] $end
$var wire 32 / branchpc [31:0] $end
$var wire 32 0 branchaddress [31:0] $end
$var wire 32 1 branchMuxOut [31:0] $end
$var wire 1 2 branchEnable $end
$var wire 1 3 aluZero $end
$var wire 1 4 aluSrc $end
$var wire 32 5 aluSecondInput [31:0] $end
$var wire 32 6 aluOut [31:0] $end
$var wire 2 7 aluOp [1:0] $end
$var wire 3 8 aluControl3bit [2:0] $end
$var wire 32 9 PCplusFour [31:0] $end
$var wire 32 : PCOut [31:0] $end
$var wire 32 ; PCIn [31:0] $end
$var wire 1 < PCEnable $end
$var wire 32 = IMemOut [31:0] $end
$var reg 32 > change [31:0] $end
$var reg 1 ? clk $end
$scope module PCPlusFourAdder $end
$var wire 32 @ B [31:0] $end
$var wire 1 ? clk $end
$var wire 32 A A [31:0] $end
$var reg 32 B out [31:0] $end
$upscope $end
$scope module aluController $end
$var wire 6 C fn [0:5] $end
$var wire 2 D aluop [0:1] $end
$var reg 3 E out [0:2] $end
$upscope $end
$scope module branchAddressAdder $end
$var wire 32 F B [31:0] $end
$var wire 32 G out [31:0] $end
$var wire 32 H A [31:0] $end
$upscope $end
$scope module branchMux $end
$var wire 32 I A [31:0] $end
$var wire 1 ! select $end
$var wire 32 J out [31:0] $end
$var wire 32 K B [31:0] $end
$upscope $end
$scope module branchleftshift $end
$var wire 32 L in [31:0] $end
$var reg 32 M out [31:0] $end
$upscope $end
$scope module controlUnit $end
$var wire 1 ? clk $end
$var wire 6 N opcode [5:0] $end
$var reg 2 O aluop [1:0] $end
$var reg 1 4 alusrc $end
$var reg 1 2 branch $end
$var reg 1 * jump $end
$var reg 1 - memread $end
$var reg 1 ) memtoreg $end
$var reg 1 , memwrite $end
$var reg 1 < pcupdate $end
$var reg 1 & regdst $end
$var reg 1 # regwrite $end
$var integer 32 P counter [31:0] $end
$upscope $end
$scope module dataMem $end
$var wire 1 ? clk $end
$var wire 1 - readPin $end
$var wire 1 , writePin $end
$var wire 32 Q writeIn [31:0] $end
$var wire 32 R adr [31:0] $end
$var reg 32 S readOut [31:0] $end
$var integer 32 T file [31:0] $end
$var integer 32 U i [31:0] $end
$upscope $end
$scope module dataMemMux $end
$var wire 32 V A [31:0] $end
$var wire 1 ) select $end
$var wire 32 W out [31:0] $end
$var wire 32 X B [31:0] $end
$upscope $end
$scope module instructionMemory $end
$var wire 1 ? clk $end
$var wire 32 Y address [31:0] $end
$var reg 32 Z instruction [31:0] $end
$upscope $end
$scope module jumpMux $end
$var wire 32 [ A [31:0] $end
$var wire 32 \ B [31:0] $end
$var wire 1 * select $end
$var wire 32 ] out [31:0] $end
$upscope $end
$scope module mainALU $end
$var wire 1 ? clk $end
$var wire 3 ^ control [0:2] $end
$var wire 32 _ in2 [0:31] $end
$var wire 32 ` in1 [0:31] $end
$var reg 32 a out [0:31] $end
$var reg 1 3 zero $end
$upscope $end
$scope module postRegisterMux $end
$var wire 1 4 select $end
$var wire 32 b out [31:0] $end
$var wire 32 c B [31:0] $end
$var wire 32 d A [31:0] $end
$upscope $end
$scope module preRegisterMux $end
$var wire 5 e A [4:0] $end
$var wire 5 f B [4:0] $end
$var wire 1 & select $end
$var wire 5 g out [4:0] $end
$upscope $end
$scope module programCounter $end
$var wire 1 ? clk $end
$var wire 32 h memLoc [31:0] $end
$var wire 1 < outputEnable $end
$var reg 32 i currentPointer [31:0] $end
$upscope $end
$scope module registerFile $end
$var wire 1 ? clk $end
$var wire 5 j readRegister1 [4:0] $end
$var wire 5 k readRegister2 [4:0] $end
$var wire 1 # regWrite $end
$var wire 32 l writeData [31:0] $end
$var wire 5 m writeRegister [4:0] $end
$var reg 32 n readData1 [31:0] $end
$var reg 32 o readData2 [31:0] $end
$var integer 32 p i [31:0] $end
$upscope $end
$scope module signExtend $end
$var wire 16 q in [15:0] $end
$var reg 32 r out [31:0] $end
$upscope $end
$upscope $end
$enddefinitions $end
#0
$dumpvars
bx r
bx q
b100000 p
bx o
bx n
bx m
bx l
bx k
bx j
b0 i
bx h
bx g
bx f
bx e
bx d
bx c
bx b
bx a
bx `
bx _
bx ^
bx ]
bx00xxxxxxxxxxxxxxxxxxxxxxxxxx \
bx [
bx Z
b0 Y
bx X
bx W
bx V
bx U
bx T
bx S
bx R
bx Q
b0 P
b11 O
bx N
bx M
bx L
bx K
bx J
bx I
bx H
bx G
bx F
bx E
b11 D
bx C
bx B
b0 A
b1 @
0?
b1 >
bx =
0<
bx ;
b0 :
bx 9
bx 8
b11 7
bx 6
bx 5
04
x3
02
bx 1
bx 0
bx /
bx .
0-
0,
bx00xxxxxxxxxxxxxxxxxxxxxxxxxx +
0*
0)
bx (
bx '
0&
bx %
bx $
0#
bx "
0!
$end
#5
b1 /
b1 G
b0 0
b0 H
b0 K
b0 M
b0 "
b0 L
b0 c
b0 r
b1 %
b1 g
b1 m
b1 ;
b1 ]
b1 h
b100011 N
b0 C
b0 q
b1 k
b0 j
b0 f
b1 e
b1 1
b1 J
b1 [
b10000000000000000 +
b10000000000000000 \
b10001100000000010000000000000000 =
b10001100000000010000000000000000 Z
03
b1 9
b1 B
b1 F
b1 I
b1 P
1?
#10
0?
#15
b0 5
b0 _
b0 b
b0 '
b0 Q
b0 d
b0 o
b0 (
b0 `
b0 n
1-
b10 P
1?
#20
0?
#25
1)
1#
b11 P
1?
#30
0?
#35
bx 5
bx _
bx b
bx '
bx Q
bx d
bx o
1<
b100 P
1?
#40
0?
#45
b10 8
b10 E
b10 ^
b0 7
b0 D
b0 O
0#
0)
0-
b0 P
0<
1?
#50
0?
#55
b1 P
1?
#60
0?
#65
1-
b10 P
1?
#70
0?
#75
1)
1#
b11 P
1?
#80
0?
#85
b1 :
b1 A
b1 Y
b1 i
1<
b100 P
1?
#90
0?
#95
b10 ;
b10 ]
b10 h
b110 %
b110 g
b110 m
b10 1
b10 J
b10 [
b101011 N
b1100000000000000000 +
b1100000000000000000 \
b110 k
b110 e
0#
0)
0-
b0 7
b0 D
b0 O
b0 P
0<
b10 /
b10 G
b10 9
b10 B
b10 F
b10 I
b10101100000001100000000000000000 =
b10101100000001100000000000000000 Z
1?
#100
0?
#105
b0 5
b0 _
b0 b
b0 '
b0 Q
b0 d
b0 o
b1 P
1?
#110
0?
#115
1,
b10 P
13
b0 6
b0 R
b0 X
b0 a
1?
#120
0?
#125
b100 U
b10000000000000000000000000000011 T
b11 P
1?
#130
0?
#135
1<
b100 P
b100 U
1?
#140
0?
#145
0,
b0 7
b0 D
b0 O
b0 P
0<
1?
#150
0?
#155
b1 P
1?
#160
0?
#165
b100 U
1,
b10 P
1?
#170
0?
#175
b11 P
b100 U
1?
#180
0?
#185
b10 :
b10 A
b10 Y
b10 i
b100 U
1<
b100 P
1?
#190
0?
#195
b0xxxxxxxxxxxxxxxx 0
b0xxxxxxxxxxxxxxxx H
b0xxxxxxxxxxxxxxxx K
b0xxxxxxxxxxxxxxxx M
b11 ;
b11 ]
b11 h
b0xxxxxxxxxxxxxxxx "
b0xxxxxxxxxxxxxxxx L
b0xxxxxxxxxxxxxxxx c
b0xxxxxxxxxxxxxxxx r
bx %
bx g
bx m
b11 1
b11 J
b11 [
bx N
b0xxxxxxxxxxxxxxxxxxxxxxxxxx +
b0xxxxxxxxxxxxxxxxxxxxxxxxxx \
bx C
bx q
bx k
bx j
bx f
bx e
0,
b0 7
b0 D
b0 O
b0 P
0<
bx /
bx G
b11 9
b11 B
b11 F
b11 I
b100 U
bx =
bx Z
1?
#200
0?
#205
bx 5
bx _
bx b
bx '
bx Q
bx d
bx o
bx (
bx `
bx n
b1 P
1?
#210
0?
#215
b10 P
03
bx 6
bx R
bx X
bx a
1?
#220
0?
#225
b11 P
1?
#230
0?
#235
1<
b100 P
1?
#240
0?
#245
b11 7
b11 D
b11 O
b0 P
0<
1?
#250
0?
#255
b1 P
1?
#260
0?
#265
b10 P
1?
#270
0?
#275
b11 P
1?
#280
0?
#285
b11 :
b11 A
b11 Y
b11 i
1<
b100 P
1?
#290
0?
#295
b100 ;
b100 ]
b100 h
b100 1
b100 J
b100 [
b0 P
0<
b100 9
b100 B
b100 F
b100 I
1?
#300
0?
#305
b1 P
1?
#310
0?
#315
b10 P
1?
#320
0?
#325
b11 P
1?
#330
0?
#335
1<
b100 P
1?
#340
0?
#345
b0 P
0<
1?
#350
0?
#355
b1 P
1?
#360
0?
#365
b10 P
1?
#370
0?
#375
b11 P
1?
#380
0?
#385
b100 :
b100 A
b100 Y
b100 i
1<
b100 P
1?
#390
0?
#395
b101 ;
b101 ]
b101 h
b101 1
b101 J
b101 [
b0 P
0<
b101 9
b101 B
b101 F
b101 I
1?
#400
0?
#405
b1 P
1?
#410
0?
#415
b10 P
1?
#420
0?
#425
b11 P
1?
#430
0?
#435
1<
b100 P
1?
#440
0?
#445
b0 P
0<
1?
#450
0?
#455
b1 P
1?
#460
0?
#465
b10 P
1?
#470
0?
#475
b11 P
1?
#480
0?
#485
b101 :
b101 A
b101 Y
b101 i
1<
b100 P
1?
#490
0?
#495
b110 ;
b110 ]
b110 h
b110 1
b110 J
b110 [
b0 P
0<
b110 9
b110 B
b110 F
b110 I
1?
#500
0?
#505
b1 P
1?
#510
0?
#515
b10 P
1?
#520
0?
#525
b11 P
1?
#530
0?
#535
1<
b100 P
1?
#540
0?
#545
b0 P
0<
1?
#550
0?
#555
b1 P
1?
#560
0?
#565
b10 P
1?
#570
0?
#575
b11 P
1?
#580
0?
#585
b110 :
b110 A
b110 Y
b110 i
1<
b100 P
1?
#590
0?
#595
b111 ;
b111 ]
b111 h
b111 1
b111 J
b111 [
b0 P
0<
b111 9
b111 B
b111 F
b111 I
1?
#600
0?
#605
b1 P
1?
#610
0?
#615
b10 P
1?
#620
0?
#625
b11 P
1?
#630
0?
#635
1<
b100 P
1?
#640
0?
#645
b0 P
0<
1?
#650
0?
#655
b1 P
1?
#660
0?
#665
b10 P
1?
#670
0?
#675
b11 P
1?
#680
0?
#685
b111 :
b111 A
b111 Y
b111 i
1<
b100 P
1?
#690
0?
#695
b1000 ;
b1000 ]
b1000 h
b1000 1
b1000 J
b1000 [
b0 P
0<
b1000 9
b1000 B
b1000 F
b1000 I
1?
#700
0?
#705
b1 P
1?
#710
0?
#715
b10 P
1?
#720
0?
#725
b11 P
1?
#730
0?
#735
1<
b100 P
1?
#740
0?
#745
b0 P
0<
1?
#750
0?
#755
b1 P
1?
#760
0?
#765
b10 P
1?
#770
0?
#775
b11 P
1?
#780
0?
#785
b1000 :
b1000 A
b1000 Y
b1000 i
1<
b100 P
1?
#790
0?
#795
b1001 ;
b1001 ]
b1001 h
b1001 1
b1001 J
b1001 [
b0 P
0<
b1001 9
b1001 B
b1001 F
b1001 I
1?
#800
0?
#805
b1 P
1?
#810
0?
#815
b10 P
1?
#820
0?
#825
b11 P
1?
#830
0?
#835
1<
b100 P
1?
#840
0?
#845
b0 P
0<
1?
#850
0?
#855
b1 P
1?
#860
0?
#865
b10 P
1?
#870
0?
#875
b11 P
1?
#880
0?
#885
b1001 :
b1001 A
b1001 Y
b1001 i
1<
b100 P
1?
#890
0?
#895
b1010 ;
b1010 ]
b1010 h
b1010 1
b1010 J
b1010 [
b0 P
0<
b1010 9
b1010 B
b1010 F
b1010 I
1?
#900
0?
#905
b1 P
1?
#910
0?
#915
b10 P
1?
#920
0?
#925
b11 P
1?
#930
0?
#935
1<
b100 P
1?
#940
0?
#945
b0 P
0<
1?
#950
0?
#955
b1 P
1?
#960
0?
#965
b10 P
1?
#970
0?
#975
b11 P
1?
#980
0?
#985
b1010 :
b1010 A
b1010 Y
b1010 i
1<
b100 P
1?
#990
0?
#995
b1011 ;
b1011 ]
b1011 h
b1011 1
b1011 J
b1011 [
b0 P
0<
b1011 9
b1011 B
b1011 F
b1011 I
1?
#1000
0?
#1005
b1 P
1?
#1010
0?
#1015
b10 P
1?
#1020
0?
#1025
b11 P
1?
#1030
0?
#1035
1<
b100 P
1?
#1040
0?
#1045
b0 P
0<
1?
#1050
0?
#1055
b1 P
1?
#1060
0?
#1065
b10 P
1?
#1070
0?
#1075
b11 P
1?
#1080
0?
#1085
b1011 :
b1011 A
b1011 Y
b1011 i
1<
b100 P
1?
#1090
0?
#1095
b1100 ;
b1100 ]
b1100 h
b1100 1
b1100 J
b1100 [
b0 P
0<
b1100 9
b1100 B
b1100 F
b1100 I
1?
#1100
0?
#1105
b1 P
1?
#1110
0?
#1115
b10 P
1?
#1120
0?
#1125
b11 P
1?
#1130
0?
#1135
1<
b100 P
1?
#1140
0?
#1145
b0 P
0<
1?
#1150
0?
#1155
b1 P
1?
#1160
0?
#1165
b10 P
1?
#1170
0?
#1175
b11 P
1?
#1180
0?
#1185
b1100 :
b1100 A
b1100 Y
b1100 i
1<
b100 P
1?
#1190
0?
#1195
b1101 ;
b1101 ]
b1101 h
b1101 1
b1101 J
b1101 [
b0 P
0<
b1101 9
b1101 B
b1101 F
b1101 I
1?
#1200
0?
#1205
b1 P
1?
#1210
0?
#1215
b10 P
1?
#1220
0?
#1225
b11 P
1?
#1230
0?
#1235
1<
b100 P
1?
#1240
0?
#1245
b0 P
0<
1?
#1250
0?
#1255
b1 P
1?
#1260
0?
#1265
b10 P
1?
#1270
0?
#1275
b11 P
1?
#1280
0?
#1285
b1101 :
b1101 A
b1101 Y
b1101 i
1<
b100 P
1?
#1290
0?
#1295
b1110 ;
b1110 ]
b1110 h
b1110 1
b1110 J
b1110 [
b0 P
0<
b1110 9
b1110 B
b1110 F
b1110 I
1?
#1300
0?
#1305
b1 P
1?
#1310
0?
#1315
b10 P
1?
#1320
0?
#1325
b11 P
1?
#1330
0?
#1335
1<
b100 P
1?
#1340
0?
#1345
b0 P
0<
1?
#1350
0?
#1355
b1 P
1?
#1360
0?
#1365
b10 P
1?
#1370
0?
#1375
b11 P
1?
#1380
0?
#1385
b1110 :
b1110 A
b1110 Y
b1110 i
1<
b100 P
1?
#1390
0?
#1395
b1111 ;
b1111 ]
b1111 h
b1111 1
b1111 J
b1111 [
b0 P
0<
b1111 9
b1111 B
b1111 F
b1111 I
1?
#1400
0?
#1405
b1 P
1?
#1410
0?
#1415
b10 P
1?
#1420
0?
#1425
b11 P
1?
#1430
0?
#1435
1<
b100 P
1?
#1440
0?
#1445
b0 P
0<
1?
#1450
0?
#1455
b1 P
1?
#1460
0?
#1465
b10 P
1?
#1470
0?
#1475
b11 P
1?
#1480
0?
#1485
b1111 :
b1111 A
b1111 Y
b1111 i
1<
b100 P
1?
#1490
0?
#1495
b10000 ;
b10000 ]
b10000 h
b10000 1
b10000 J
b10000 [
b0 P
0<
b10000 9
b10000 B
b10000 F
b10000 I
1?
#1500
0?
#1505
b1 P
1?
#1510
0?
#1515
b10 P
1?
#1520
0?
#1525
b11 P
1?
#1530
0?
#1535
1<
b100 P
1?
#1540
0?
#1545
b0 P
0<
1?
#1550
0?
#1555
b1 P
1?
#1560
0?
#1565
b10 P
1?
#1570
0?
#1575
b11 P
1?
#1580
0?
#1585
b10000 :
b10000 A
b10000 Y
b10000 i
1<
b100 P
1?
#1590
0?
#1595
b10001 ;
b10001 ]
b10001 h
b10001 1
b10001 J
b10001 [
b0 P
0<
b10001 9
b10001 B
b10001 F
b10001 I
1?
#1600
0?
#1605
b1 P
1?
#1610
0?
#1615
b10 P
1?
#1620
0?
#1625
b11 P
1?
#1630
0?
#1635
1<
b100 P
1?
#1640
0?
#1645
b0 P
0<
1?
#1650
0?
#1655
b1 P
1?
#1660
0?
#1665
b10 P
1?
#1670
0?
#1675
b11 P
1?
#1680
0?
#1685
b10001 :
b10001 A
b10001 Y
b10001 i
1<
b100 P
1?
#1690
0?
#1695
b10010 ;
b10010 ]
b10010 h
b10010 1
b10010 J
b10010 [
b0 P
0<
b10010 9
b10010 B
b10010 F
b10010 I
1?
#1700
0?
#1705
b1 P
1?
#1710
0?
#1715
b10 P
1?
#1720
0?
#1725
b11 P
1?
#1730
0?
#1735
1<
b100 P
1?
#1740
0?
#1745
b0 P
0<
1?
#1750
0?
#1755
b1 P
1?
#1760
0?
#1765
b10 P
1?
#1770
0?
#1775
b11 P
1?
#1780
0?
#1785
b10010 :
b10010 A
b10010 Y
b10010 i
1<
b100 P
1?
#1790
0?
#1795
b10011 ;
b10011 ]
b10011 h
b10011 1
b10011 J
b10011 [
b0 P
0<
b10011 9
b10011 B
b10011 F
b10011 I
1?
#1800
0?
#1805
b1 P
1?
#1810
0?
#1815
b10 P
1?
#1820
0?
#1825
b11 P
1?
#1830
0?
#1835
1<
b100 P
1?
#1840
0?
#1845
b0 P
0<
1?
#1850
0?
#1855
b1 P
1?
#1860
0?
#1865
b10 P
1?
#1870
0?
#1875
b11 P
1?
#1880
0?
#1885
b10011 :
b10011 A
b10011 Y
b10011 i
1<
b100 P
1?
#1890
0?
#1895
b10100 ;
b10100 ]
b10100 h
b10100 1
b10100 J
b10100 [
b0 P
0<
b10100 9
b10100 B
b10100 F
b10100 I
1?
#1900
0?
#1905
b1 P
1?
#1910
0?
#1915
b10 P
1?
#1920
0?
#1925
b11 P
1?
#1930
0?
#1935
1<
b100 P
1?
#1940
0?
#1945
b0 P
0<
1?
#1950
0?
#1955
b1 P
1?
#1960
0?
#1965
b10 P
1?
#1970
0?
#1975
b11 P
1?
#1980
0?
#1985
b10100 :
b10100 A
b10100 Y
b10100 i
1<
b100 P
1?
#1990
0?
#1995
b10101 ;
b10101 ]
b10101 h
b10101 1
b10101 J
b10101 [
b0 P
0<
b10101 9
b10101 B
b10101 F
b10101 I
1?
